total 24
drwxr-xr-x  4 pauloseoanedavila  staff   128 26 nov 10:42 aso
-rwxr-xr-x  1 pauloseoanedavila  staff  3900 26 nov 11:19 collect-prac.sh
-rw-r--r--  1 pauloseoanedavila  staff     0 26 nov 11:25 log.txt
-rw-r--r--  1 pauloseoanedavila  staff     0 26 nov 10:46 prac.log
-rwxr-xr-x  1 pauloseoanedavila  staff   391 26 nov 11:19 store-prac.sh
-rw-r--r--  1 pauloseoanedavila  staff   140 26 nov 10:46 task
